\relax 
\@writefile{lof}{\contentsline {figure}{\numberline {1}{\ignorespaces Java source code of the class \texttt  {College3}.}}{1}}
\newlabel{fig:source}{{1}{1}}
\@writefile{lof}{\contentsline {figure}{\numberline {2}{\ignorespaces IC code of one of the threads of objects of the class \texttt  {College3}.}}{2}}
\newlabel{fig:intermediate}{{2}{2}}
\@writefile{lof}{\contentsline {figure}{\numberline {3}{\ignorespaces Shortened Verics representation of one of the threads of objects of the class \texttt  {College3}.}}{2}}
\newlabel{fig:target}{{3}{2}}
\@writefile{lot}{\contentsline {table}{\numberline {1}{\ignorespaces Mutual dependencies between the lines in each representation.}}{3}}
\newlabel{tab:mapping}{{1}{3}}
