\relax 
\@writefile{toc}{\contentsline {section}{\numberline {1}Introduction}{1}}
\@writefile{toc}{\contentsline {section}{\numberline {2}Interpreter}{1}}
\@writefile{toc}{\contentsline {subsection}{\numberline {2.1}Threads}{1}}
\@writefile{toc}{\contentsline {subsection}{\numberline {2.2}Library and annotations}{1}}
\@writefile{toc}{\contentsline {subsection}{\numberline {2.3}Special annotations}{2}}
\@writefile{toc}{\contentsline {subsection}{\numberline {2.4}Comment tags}{2}}
\@writefile{toc}{\contentsline {section}{\numberline {3}Building TADDs}{2}}
\@writefile{toc}{\contentsline {subsection}{\numberline {3.1}Virtual call resolution}{3}}
\@writefile{toc}{\contentsline {subsection}{\numberline {3.2}Code flattening}{3}}
\@writefile{toc}{\contentsline {subsection}{\numberline {3.3}Optimization}{3}}
\@writefile{toc}{\contentsline {subsection}{\numberline {3.4}Ambiguity check}{3}}
\@writefile{toc}{\contentsline {subsection}{\numberline {3.5}Generating transitions}{3}}
\@writefile{toc}{\contentsline {subsubsection}{\numberline {3.5.1}Merging operations}{3}}
\@writefile{toc}{\contentsline {subsubsection}{\numberline {3.5.2}Locks and synchronization}{4}}
\@writefile{lof}{\contentsline {figure}{\numberline {1}{\ignorespaces A tree of transitions that emulates \texttt  {notifyAll()}, without broadcast and combined synchronization/variable update. There are four threads 1, 2, 3 and 4, and the notifying thread is 1. The variable that holds the number of waiting threads is named \emph  {c}. Meaning of symbols: \emph  {x}! -- notify \emph  {x}th thread, -1 -- decrease \emph  {c} by 1.}}{4}}
\newlabel{fig:notify-all}{{1}{4}}
\@writefile{toc}{\contentsline {section}{\numberline {4}Choices}{4}}
\@writefile{toc}{\contentsline {subsection}{\numberline {4.1}Conditional choice}{5}}
\@writefile{lof}{\contentsline {figure}{\numberline {2}{\ignorespaces A conditional choice made from a number of binary branches.}}{5}}
\newlabel{fig:conditional-choice}{{2}{5}}
\@writefile{toc}{\contentsline {subsection}{\numberline {4.2}Probabilistic choice}{5}}
\@writefile{lof}{\contentsline {figure}{\numberline {3}{\ignorespaces An example probabilistic choice.}}{5}}
\newlabel{fig:probabilistic-choice}{{3}{5}}
\@writefile{toc}{\contentsline {subsection}{\numberline {4.3}Nondeterministic choice}{5}}
\@writefile{lof}{\contentsline {figure}{\numberline {4}{\ignorespaces An example nondeterministic choice.}}{6}}
\newlabel{fig:nondeterministic-choice}{{4}{6}}
